{
   "name": "minus/crossfader",
   "description": "Youtube crossFader",
   "license": "proprietary",
   "repositories": 
            [
                {
                    "type": "composer",
                    "url": "https://packages.zendframework.com/",
                    "type": "pear",
                    "url": "http://pear2.php.net"
                }
            ],
    "require": {
        "zendframework/zend-authentication": ">=2.0",
        "zendframework/zend-barcode": ">=2.0",
        "zendframework/zend-cache": ">=2.0",
        "zendframework/zend-captcha": ">=2.0",
        "zendframework/zendcloud": ">=2.0",
        "zendframework/zend-code": ">=2.0",
        "zendframework/zend-config": ">=2.0",
        "zendframework/zend-console": ">=2.0",
        "zendframework/zend-crypt": ">=2.0",
        "zendframework/zend-db": ">=2.0",
        "zendframework/zend-debug": ">=2.0",
        "zendframework/zend-di": ">=2.0",
        "zendframework/zend-dom": ">=2.0",
        "zendframework/zend-escaper": ">=2.0",
        "zendframework/zend-eventmanager": ">=2.0",
        "zendframework/zend-feed": ">=2.0",
        "zendframework/zend-file": ">=2.0",
        "zendframework/zend-filter": ">=2.0",
        "zendframework/zend-form": ">=2.0",
        "zendframework/zendgdata": ">=2.0",
        "zendframework/zend-http": ">=2.0",
        "zendframework/zend-i18n": ">=2.0",
        "zendframework/zend-inputfilter": ">=2.0",
        "zendframework/zend-json": ">=2.0",
        "zendframework/zend-ldap": ">=2.0",
        "zendframework/zend-loader": ">=2.0",
        "zendframework/zend-log": ">=2.0",
        "zendframework/zend-mail": ">=2.0",
        "zendframework/zend-math": ">=2.0",
        "zendframework/zend-memory": ">=2.0",
        "zendframework/zend-mime": ">=2.0",
        "zendframework/zend-modulemanager": ">=2.0",
        "zendframework/zend-mvc": ">=2.0",
        "zendframework/zend-navigation": ">=2.0",
        "zendframework/zendoauth": ">=2.0",
        "zendframework/zendopenid": ">=2.0",
        "zendframework/zend-paginator": ">=2.0",
        "zendframework/zendpdf": ">=2.0",
        "zendframework/zend-permissions-acl": ">=2.0",
        "zendframework/zend-progressbar": ">=2.0",
        "zendframework/zendrest": ">=2.0",
        "zendframework/zend-serializer": ">=2.0",
        "zendframework/zend-server": ">=2.0",
        "zendframework/zendservice-agilezen": ">=2.0",
        "zendframework/zendservice-akismet": ">=2.0",
        "zendframework/zendservice-amazon": ">=2.0",
        "zendframework/zendservice-gogrid": ">=2.0",
        "zendframework/zendservice-livedocx": ">=2.0",
        "zendframework/zend-servicemanager": ">=2.0",
        "zendframework/zendservice-nirvanix": ">=2.0",
        "zendframework/zendservice-rackspace": ">=2.0",
        "zendframework/zendservice-recaptcha": ">=2.0",
        "zendframework/zendservice-slideshare": ">=2.0",
        "zendframework/zendservice-strikeiron": ">=2.0",
        "zendframework/zendservice-technorati": ">=2.0",
        "zendframework/zendservice-twitter": ">=2.0",
        "zendframework/zendservice-windowsazure": ">=2.0",
        "zendframework/zend-session": ">=2.0",
        "zendframework/zend-soap": ">=2.0",
        "zendframework/zend-stdlib": ">=2.0",
        "zendframework/zend-tag": ">=2.0",
        "zendframework/zend-text": ">=2.0",
        "zendframework/zend-uri": ">=2.0",
        "zendframework/zend-validator": ">=2.0",
        "zendframework/zend-version": ">=2.0",
        "zendframework/zend-view": ">=2.0",
        "zendframework/zend-xmlrpc": ">=2.0"
    }
}
